Exploring Baltimore’s Bus Network Redesign with GTFS - Calculating Headways: December 2017
…
nrow(gtfs_fil$trips)

[1] 11981

nrow(gtfs_fil$routes)

[1] 106

An intermediate unit can be assigned by GTFStools: a pattern. Patterns group together trips that follow the same sequence of stops. There are far fewer patterns than there are trips, but more patterns than routes.

patterns <- get_stop_times_patterns(gtfs_fil)
count(patterns, pattern_id)

# A tibble: 626 × 2
   pattern_id     n
        <int> <int>
 1          1     2
 2          2     3
 3          3     9
 4          4    64
 5          5     4
 6          6     2
 7          7     2
 8          8     1
 9          9    13
10         10    63
# … with 616 more rows
…
Trips that run M-F are given a service_id of “1”.

weekday_trips <- filter(trips_patt, service_id == 1)
unique(weekday_trips$service_id)

[1] "1"

We are almost ready to calculate headways. We have to group the weekday_trips table by pattern_id and stop_sequence.

weekday_trips_grp <- group_by(weekday_trips, pattern_id, stop_sequence)
tally(weekday_trips_grp)

# A tibble: 28,535 × 3
   pattern_id stop_sequence     n
        <int>         <int> <int>
 1          1             1     2
 2          1             2     2
 3          1             3     2
 4          1             4     2
 5          1             5     2
 6          1             6     2
 7          1             7     2
 8          1             8     2
 9          1             9     2
10          1            10     2
# … with 28,525 more rows
…
